10.-Multiplicador/simulation/qsim/Multiplicador.msim.vcd
$comment
	File created using the following command:
		vcd file Multiplicador.msim.vcd -direction
$end
$date
	Fri Oct 24 10:56:02 2025
$end
$version
	ModelSim Version 10.1d
$end
$timescale
	1ps
$end
$scope module Multiplicador_vlg_vec_tst $end
$var reg 1 ! A0 $end
$var reg 1 " A1 $end
$var reg 1 # A2 $end
$var reg 1 $ A3 $end
$var reg 1 % B0 $end
$var reg 1 & B1 $end
$var reg 1 ' B2 $end
$var reg 1 ( B3 $end
$var wire 1 ) S0 $end
$var wire 1 * S1 $end
$var wire 1 + S2 $end
$var wire 1 , S3 $end
$var wire 1 - S4 $end
$var wire 1 . S5 $end
$var wire 1 / S6 $end
$var wire 1 0 S7 $end
$var wire 1 1 sampler $end
$scope module i1 $end
$var wire 1 2 gnd $end
$var wire 1 3 vcc $end
$var wire 1 4 unknown $end
$var tri1 1 5 devclrn $end
$var tri1 1 6 devpor $end
$var tri1 1 7 devoe $end
$var wire 1 8 inst23|inst|inst|inst2~combout $end
$var wire 1 9 inst21|inst|inst5|inst1~combout $end
$var wire 1 : inst23|inst|inst4|inst4~0_combout $end
$var wire 1 ; S0~output_o $end
$var wire 1 < S1~output_o $end
$var wire 1 = S2~output_o $end
$var wire 1 > S3~output_o $end
$var wire 1 ? S4~output_o $end
$var wire 1 @ S5~output_o $end
$var wire 1 A S6~output_o $end
$var wire 1 B S7~output_o $end
$var wire 1 C A0~input_o $end
$var wire 1 D B0~input_o $end
$var wire 1 E inst3~combout $end
$var wire 1 F A1~input_o $end
$var wire 1 G B1~input_o $end
$var wire 1 H inst21|inst|inst|inst1~combout $end
$var wire 1 I A2~input_o $end
$var wire 1 J B2~input_o $end
$var wire 1 K inst5~combout $end
$var wire 1 L inst21|inst|inst|inst2~combout $end
$var wire 1 M inst21|inst|inst3|inst1~combout $end
$var wire 1 N inst23|inst|inst|inst1~combout $end
$var wire 1 O A3~input_o $end
$var wire 1 P inst21|inst|inst3|inst4~0_combout $end
$var wire 1 Q B3~input_o $end
$var wire 1 R inst6~combout $end
$var wire 1 S inst21|inst|inst4|inst1~combout $end
$var wire 1 T inst23|inst|inst3|inst1~combout $end
$var wire 1 U inst24|inst|inst|inst1~combout $end
$var wire 1 V inst23|inst|inst3|inst4~0_combout $end
$var wire 1 W inst23|inst|inst4|inst1~combout $end
$var wire 1 X inst24|inst|inst|inst2~combout $end
$var wire 1 Y inst24|inst|inst3|inst1~combout $end
$var wire 1 Z inst21|inst|inst4|inst4~0_combout $end
$var wire 1 [ inst21|inst|inst5|inst2~combout $end
$var wire 1 \ inst23|inst|inst5|inst1~combout $end
$var wire 1 ] inst24|inst|inst3|inst4~0_combout $end
$var wire 1 ^ inst24|inst|inst4|inst1~combout $end
$var wire 1 _ inst24|inst|inst4|inst4~0_combout $end
$var wire 1 ` inst23|inst|inst5|inst4~0_combout $end
$var wire 1 a inst24|inst|inst5|inst1~0_combout $end
$var wire 1 b inst24|inst|inst5|inst4~0_combout $end
$upscope $end
$upscope $end
$enddefinitions $end
#0
$dumpvars
1!
0"
0#
0$
1%
1&
1'
1(
1)
1*
1+
1,
0-
0.
0/
00
x1
02
13
x4
15
16
17
08
09
0:
1;
1<
1=
1>
0?
0@
0A
0B
1C
1D
1E
0F
1G
1H
0I
1J
1K
0L
1M
1N
0O
0P
1Q
1R
1S
1T
1U
0V
0W
0X
0Y
0Z
0[
0\
0]
0^
0_
0`
0a
0b
$end
#20000
0!
1#
1$
0%
0&
0'
0(
0C
1I
1O
0D
0G
0J
0Q
01
0R
0K
0H
0E
0S
0M
0<
0;
0*
0)
0T
0N
0=
0+
0U
0>
0,
#40000
1"
0$
1%
1'
1F
0O
1D
1J
11
1S
1W
1H
1N
1T
1<
1=
1*
1+
1Y
1?
1-
1U
1>
1,
#60000
1!
1(
0"
1$
0%
0'
1C
1Q
0F
1O
0D
0J
01
1R
1\
0S
0W
0H
1a
0N
1S
0T
0<
1A
0=
0*
1/
0+
1^
0Y
1T
1@
0?
1.
0-
0U
0>
0,
1U
1>
1,
#80000
0#
0(
0I
0Q
11
0\
0R
0a
0S
0A
0/
0^
0T
0@
0.
0U
0>
0,
#100000
1"
0$
1%
1(
1F
0O
1D
1Q
01
19
1R
1H
1E
1W
1S
1<
1;
1*
1)
1T
1Y
1?
1-
1U
1>
1,
#120000
1&
0!
1#
1$
0%
0(
1G
0C
1I
1O
0D
0Q
11
1]
1V
0T
1M
0R
09
0Y
0H
0E
0S
0?
0<
0;
0-
0*
0)
1^
0U
1N
0V
1T
1@
0>
1=
1.
0,
1+
0W
1U
0]
1>
1,
1Y
1?
1-
0^
0@
0.
#140000
0"
0&
1%
0F
0G
1D
01
0M
0T
1X
18
0Y
0U
0N
08
0X
1T
0?
0>
0=
0-
0,
0+
1N
1U
1Y
0T
1X
1=
1>
1?
1+
1,
1-
0Y
0U
0X
0?
0>
0-
0,
1U
1Y
1>
1?
1,
1-
0Y
0?
0-
#160000
1'
1!
0$
0%
1J
1C
0O
0D
11
1W
1K
0U
0N
1M
0>
0=
0,
0+
1Y
1?
1-
1N
1=
1+
#180000
0#
0'
0!
0I
0J
0C
01
0W
0K
0M
0Y
0?
0-
0N
0=
0+
#200000
1(
1%
1#
1Q
1D
1I
11
1\
1N
1=
1+
1^
1@
1.
#220000
1$
1'
1!
0(
1O
1J
1C
0Q
01
1_
1W
1K
0\
0^
1U
1E
1M
0_
0@
1>
1;
0.
1,
1)
1a
1Y
1^
18
1A
1?
1@
1/
1-
1.
0N
0a
1T
0=
0A
0+
0/
1X
0U
1]
0>
0,
0Y
1_
0?
0-
0^
0@
0.
1a
1A
1/
#240000
0#
0!
1(
0I
0C
1Q
11
0W
08
0K
1N
0E
1b
0a
0]
0T
0M
1=
0;
1B
0A
1+
0)
10
0/
1Y
0_
0X
1?
1-
1^
1U
0N
1@
1>
0=
1.
1,
0+
0b
1a
0Y
0B
1A
0?
00
1/
0-
#260000
1"
1&
1F
1G
01
1S
1M
19
1H
1Y
1T
1W
1<
1?
1*
1-
1N
1X
1]
1=
1+
0U
0Y
1_
0>
0?
0,
0-
1Y
0^
1?
0@
1-
0.
1b
0a
1B
0A
10
0/
#280000
0$
0'
0O
0J
11
0_
0X
0S
0b
1a
1^
0Y
1U
0]
0T
0B
1A
1@
0?
1>
00
1/
1.
0-
1,
0a
1Y
0A
1?
0/
1-
0^
0U
0@
0>
0.
0,
#300000
1!
0"
0&
1$
1'
1C
0F
0G
1O
1J
01
1R
1K
0M
09
0H
1E
1a
1^
1U
1S
1M
0W
0<
1;
1A
1@
1>
0*
1)
1/
1.
1,
0N
1T
0=
0+
1N
0Y
1X
1=
0?
1+
0-
0U
0>
0,
1Y
1?
1-
#320000
0%
1#
0!
1"
0$
0D
1I
0C
1F
0O
11
0X
1\
1W
0R
0K
1Z
0S
19
1U
0E
0a
0^
0Z
1S
0M
1[
09
0T
0W
1:
1>
0;
0A
0@
1,
0)
0/
0.
1^
0[
19
1T
1`
1W
0:
1@
1.
0N
0U
0Y
0`
0W
1:
0=
0>
0?
0+
0,
0-
1U
1a
1Y
1`
0\
1>
1A
1?
1,
1/
1-
0a
0Y
0A
0?
0/
0-
1a
0^
1A
0@
1/
0.
#340000
0(
0'
1!
0Q
0J
1C
01
0`
1\
09
1W
0S
0:
0W
0T
0\
0a
1^
1Y
0A
1@
1?
0/
1.
1-
0Y
0U
0^
0?
0>
0@
0-
0,
0.
#360000
1&
1$
1(
1G
1O
1Q
11
1T
1M
1\
1R
19
1Y
1H
1a
1S
1W
1?
1<
1A
1-
1*
1/
1U
1N
1^
1V
0T
1]
1>
1=
1@
1,
1+
1.
0Y
0W
1:
1_
0?
0-
0U
0^
0]
1`
0\
0>
0@
0,
0.
1Y
1b
0a
0_
1?
1B
0A
1-
10
0/
1a
1A
1/
0a
0A
0/
#380000
1'
0&
1J
0G
01
1Z
1W
0S
1K
0V
1T
0M
1^
0Y
0H
1[
09
0T
1M
0W
1@
0?
0<
1.
0-
0*
1Y
1U
0N
1\
1W
0:
1?
1>
0=
1-
1,
0+
0U
1N
0Y
1_
0\
0>
1=
0?
0,
1+
0-
0^
1Y
0_
0@
1?
0.
1-
1a
1^
1A
1@
1/
1.
0a
0A
0/
#400000
0#
0(
0'
0I
0Q
0J
11
0`
1\
0W
0[
0R
19
0Z
1S
0K
0b
1a
0^
0\
0S
1W
09
1T
0M
0B
1A
0@
00
1/
0.
0a
1^
0Y
0T
0W
0A
1@
0?
0/
1.
0-
0^
1Y
1U
0N
0@
1?
1>
0=
0.
1-
1,
0+
0U
0Y
0>
0?
0,
0-
#420000
1%
0$
1#
1D
0O
1I
01
1N
1H
1E
1=
1<
1;
1+
1*
1)
#440000
0!
1&
1'
0%
1$
0#
0C
1G
1J
0D
1O
0I
11
1M
1S
0H
0E
1Y
1^
0N
1T
0<
0;
1?
1@
0=
0*
0)
1-
1.
0+
1N
1=
1+
1U
1>
1,
#460000
0"
1!
1#
0F
1C
1I
01
0S
0M
1K
1W
1V
0T
1H
0V
1T
1M
1]
0W
1:
1<
1*
0N
0Y
0U
1W
0:
1_
0]
1\
0=
0?
0>
0+
0-
0,
1U
1N
0^
1Y
1]
0\
1>
1=
0@
1?
1,
1+
0.
1-
0Y
1a
0?
1A
0-
1/
#480000
0&
0$
1"
0G
0O
1F
11
0]
0T
0_
1S
1Y
0H
1^
1T
1?
0<
1@
1-
0*
1.
0^
0U
0a
0@
0>
0A
0.
0,
0/
1U
1>
1,
#500000
1(
0'
0!
0#
1&
0"
1Q
0J
0C
0I
1G
0F
01
0W
0S
0K
0T
0M
0Y
0?
0-
0U
0N
0>
0=
0,
0+
#520000
1%
1!
1"
1D
1C
1F
11
1L
1R
1M
19
1E
1P
0M
1S
1W
1;
1)
1N
1Z
0S
1T
1=
1+
0N
1Y
1[
09
0T
0=
1?
0+
1-
1U
1\
0W
1>
1,
0U
0>
0,
1^
0Y
1@
0?
1.
0-
#540000
0(
1'
0"
0Q
1J
0F
01
0[
0R
19
1K
0P
1M
0L
1H
0\
0Z
1W
1<
1*
1N
09
1=
1+
0^
1Y
0W
0@
1?
0.
1-
0Y
0?
0-
#560000
1$
0&
0%
0!
1(
0'
1O
0G
0D
0C
1Q
0J
11
0K
1a
0H
0E
0M
1A
0<
0;
1/
0*
0)
0N
0=
0+
#580000
1&
1%
1'
1G
1D
1J
01
1Y
1U
1^
1?
1>
1@
1-
1,
1.
#600000
1"
1F
11
1S
1M
19
1H
1T
1W
1<
1*
1N
1X
1]
1=
1+
0U
0Y
1_
0>
0?
0,
0-
1Y
0^
1?
0@
1-
0.
1b
0a
1B
0A
10
0/
#620000
1#
0$
1!
0'
0"
1I
0O
1C
0J
0F
01
1\
1V
0T
18
0_
0X
1R
0S
0M
09
0N
0b
1a
1^
0Y
1U
1E
1_
0]
1S
08
0=
0B
1A
1@
0?
1>
1;
0+
00
1/
1.
0-
1,
1)
0^
0U
0a
1Y
1N
0_
0@
0>
0A
1?
1=
0.
0,
0/
1-
1+
1a
1^
1A
1@
1/
1.
0a
0A
0/
#640000
0%
1'
1"
0D
1J
1F
11
1Z
0W
0S
1K
1:
1M
19
0N
0E
1[
09
0V
1T
1P
0M
1`
0\
1W
0=
0;
0+
0)
0Y
1N
1\
0:
1S
0?
1=
0-
1+
1U
0N
1a
0^
1Y
0\
1V
0T
1>
0=
1A
0@
1?
1,
0+
1/
0.
1-
1^
0W
1:
1@
1.
0^
0U
1\
0@
0>
0.
0,
0Y
0?
0-
1^
1@
1.
#660000
0(
0#
0'
0Q
0I
0J
01
0\
0[
0R
19
1W
0V
1T
0:
0S
0K
0`
0Z
1S
0T
0P
1M
0^
1Y
1U
09
1T
0S
0@
1?
1>
0.
1-
1,
0a
0U
1N
0W
0T
0A
0>
1=
0/
0,
1+
1U
1>
1,
0Y
0U
0?
0>
0-
0,
#680000
0!
1#
1'
0C
1I
1J
11
1W
1T
1S
0H
1V
0T
0<
0*
1Y
1U
0W
1:
1?
1>
1-
1,
0U
1\
0>
0,
0Y
0?
0-
1^
1@
1.
#700000
0&
1!
0'
0G
1C
0J
01
0V
1T
0M
1W
0S
0:
0W
0T
0\
1U
0N
1Y
1>
0=
1?
1,
0+
1-
0Y
0U
0^
0?
0>
0@
0-
0,
0.
#720000
1%
0"
0#
1&
0!
1'
1D
0F
0I
1G
0C
1J
11
#740000
0%
1#
1!
0D
1I
1C
01
1W
1T
1K
1H
1M
1<
1*
1Y
1U
1?
1>
1-
1,
1N
1=
1+
#760000
1$
1%
0#
0!
1O
1D
0I
0C
11
1]
1X
0W
0T
0K
1^
0Y
0U
0H
1_
0X
0M
1@
0?
0>
0<
1.
0-
0,
0*
0^
1U
0]
0@
1>
0.
1,
1a
1Y
0N
0_
1A
1?
0=
1/
1-
0+
1^
1@
1.
0a
0A
0/
#780000
1(
1"
0&
0'
0%
1#
1Q
1F
0G
0J
0D
1I
01
1\
19
1a
0Y
0^
0U
1W
1A
0?
0@
0>
1/
0-
0.
0,
1^
1@
1.
1Y
1?
1-
#800000
0$
0"
0O
0F
11
09
0a
0W
0A
0/
0Y
0?
0-
#820000
1!
0(
1'
1%
0#
1$
1C
0Q
1J
1D
0I
1O
01
1K
0\
1_
1E
0^
1U
1M
0_
1;
0@
1>
1)
0.
1,
1^
1a
1@
1A
1.
1/
1N
0a
1=
0A
1+
0/
#840000
0!
0$
0C
0O
11
0K
0E
0^
0U
0M
0;
0@
0>
0)
0.
0,
0N
0=
0+
#860000
1(
0%
1!
1Q
0D
1C
01
1R
1K
1S
1M
1T
1N
1=
1+
1U
1>
1,
#880000
1"
0'
1#
1$
0(
1%
0!
1F
0J
1I
1O
0Q
1D
0C
11
0K
18
1X
0R
1H
0N
0U
0M
1V
0T
0S
1<
0=
0>
1*
0+
0,
1Y
08
1W
0X
0V
1T
1?
1-
1N
1U
0T
0W
1X
1=
1>
1+
1,
0U
0X
0>
0,
1U
1>
1,
0Y
0?
0-
#900000
1&
0"
1'
0#
0$
1G
0F
1J
0I
0O
01
0H
0N
0U
0<
0=
0>
0*
0+
0,
#920000
1(
1!
0&
1$
1Q
1C
0G
1O
11
1R
1K
1a
1E
1^
1U
1S
1M
1A
1;
1@
1>
1/
1)
1.
1,
1T
1N
1X
1=
1+
0U
0>
0,
1Y
1?
1-
#940000
0%
0(
0!
1&
0$
0D
0Q
0C
1G
0O
01
0X
0R
0K
1U
0E
0a
0^
0S
0M
1>
0;
0A
0@
1,
0)
0/
0.
0Y
0T
0?
0-
0N
0=
0+
0U
0>
0,
#960000
1#
1%
1(
1!
0&
1$
1I
1D
1Q
1C
0G
1O
11
1\
1W
1R
1K
1N
1U
1E
1a
1^
1_
1S
1M
1=
1>
1;
1A
1@
1+
1,
1)
1/
1.
0^
1Y
1T
18
0@
1?
0.
1-
1b
0a
0N
1X
1V
0T
1B
0A
0=
10
0/
0+
0U
1]
0W
1:
0X
0>
0,
0Y
1U
0]
1`
0\
0?
1>
0-
1,
1^
0_
1@
1.
1a
1A
1/
0a
0A
0/
#980000
0'
0#
0%
0!
1&
0J
0I
0D
0C
1G
01
1W
0K
0:
0`
1\
08
0R
0^
1N
0U
0E
1Y
1]
0M
0\
0V
1T
0S
0@
1=
0>
0;
1?
0.
1+
0,
0)
1-
0Y
0b
1a
1^
0W
0T
0?
0B
1A
1@
0-
00
1/
1.
0N
1U
0]
0=
1>
0+
1,
1Y
0U
1?
0>
1-
0,
0^
0@
0.
