SumV2/simulation/qsim/SumV2.msim.vcd
$comment
	File created using the following command:
		vcd file SumV2.msim.vcd -direction
$end
$date
	Fri Oct 24 10:00:46 2025
$end
$version
	ModelSim Version 10.1d
$end
$timescale
	1ps
$end
$scope module SumV2_vlg_vec_tst $end
$var reg 1 ! A0 $end
$var reg 1 " A1 $end
$var reg 1 # A2 $end
$var reg 1 $ A3 $end
$var reg 1 % B0 $end
$var reg 1 & B1 $end
$var reg 1 ' B2 $end
$var reg 1 ( B3 $end
$var reg 1 ) Cin $end
$var wire 1 * S0 $end
$var wire 1 + S1 $end
$var wire 1 , S2 $end
$var wire 1 - S3 $end
$var wire 1 . S4 $end
$var wire 1 / sampler $end
$scope module i1 $end
$var wire 1 0 gnd $end
$var wire 1 1 vcc $end
$var wire 1 2 unknown $end
$var tri1 1 3 devclrn $end
$var tri1 1 4 devpor $end
$var tri1 1 5 devoe $end
$var wire 1 6 S2~output_o $end
$var wire 1 7 S4~output_o $end
$var wire 1 8 S3~output_o $end
$var wire 1 9 S1~output_o $end
$var wire 1 : S0~output_o $end
$var wire 1 ; B1~input_o $end
$var wire 1 < A1~input_o $end
$var wire 1 = A3~input_o $end
$var wire 1 > inst|inst4~0_combout $end
$var wire 1 ? A2~input_o $end
$var wire 1 @ B3~input_o $end
$var wire 1 A inst|inst4~1_combout $end
$var wire 1 B inst3|inst4~0_combout $end
$var wire 1 C inst4|inst1~0_combout $end
$var wire 1 D Cin~input_o $end
$var wire 1 E inst|inst1~0_combout $end
$var wire 1 F B2~input_o $end
$var wire 1 G inst3|inst1~combout $end
$var wire 1 H B0~input_o $end
$var wire 1 I A0~input_o $end
$var wire 1 J inst4|inst4~0_combout $end
$var wire 1 K inst5|inst1~combout $end
$var wire 1 L inst5|inst4~0_combout $end
$upscope $end
$upscope $end
$enddefinitions $end
#0
$dumpvars
0!
0"
0#
1$
0%
1&
0'
1(
0)
0*
0+
1,
1-
0.
x/
00
11
x2
13
14
15
16
07
18
09
0:
1;
0<
1=
0>
0?
1@
1A
0B
1C
0D
0E
0F
1G
0H
0I
0J
0K
0L
$end
#20000
1!
1#
0$
1%
1'
0(
1I
1?
0=
1H
1F
0@
0/
1B
0A
1L
1J
1:
1*
0C
0G
06
08
0,
0-
1K
19
1+
#40000
1"
0!
1(
1<
0I
1@
1/
1C
0K
1E
16
09
17
1,
0+
1.
#60000
0'
0"
1!
0F
0<
1I
0/
0B
1G
0C
1K
0J
18
06
19
1-
0,
1+
1C
16
1,
0K
09
0+
#80000
0#
1$
0%
1"
0?
1=
0H
1<
1/
1A
1J
0G
0E
0L
1K
0C
08
07
0:
19
06
0-
0.
0*
1+
0,
1G
1L
0K
18
1:
09
1-
1*
0+
#100000
0!
0"
0I
0<
0/
0J
0L
1K
1C
0:
19
16
0*
1+
1,
0K
09
0+
#120000
0(
0$
1%
0@
0=
1H
1/
0A
1K
19
1+
0G
08
0-
#140000
0&
1'
1#
1!
1(
0%
0;
1F
1?
1I
1@
0H
0/
1B
0C
1E
06
17
0,
1.
1C
16
1,
#160000
1$
0'
0#
0!
1%
1=
0F
0?
0I
1H
1/
1A
0B
0E
07
0.
1G
0C
18
06
1-
0,
#180000
1&
0$
1'
1#
1!
1;
0=
1F
1?
1I
0/
0A
1B
1C
1E
1L
0K
1J
16
17
1:
09
1,
1.
1*
0+
0G
0C
08
06
0-
0,
1K
19
1+
#200000
0%
0&
0#
0!
0H
0;
0?
0I
1/
0J
0B
0L
1C
1G
0:
16
18
0*
1,
1-
0K
0C
09
06
0+
0,
#220000
1%
1#
1H
1?
0/
1B
1K
0G
19
08
1+
0-
1C
16
1,
#240000
1&
0#
1;
0?
1/
1J
0B
0C
1G
0J
06
18
0,
1-
1L
0K
1C
1:
09
16
1*
0+
1,
0L
1K
0:
19
0*
1+
#260000
1#
1?
0/
1B
0G
1J
08
0-
0C
06
0,
1L
0K
1:
09
1*
0+
#280000
1"
1!
1<
1I
1/
1C
1K
16
19
1,
1+
#300000
0#
0"
0!
0?
0<
0I
0/
0B
1G
0C
0K
0J
18
06
09
1-
0,
0+
1C
16
1,
0L
1K
0:
19
0*
1+
#320000
0(
1$
0'
1"
1!
0@
1=
0F
1<
1I
1/
1J
0G
0C
1L
0K
08
06
1:
09
0-
0,
1*
0+
1K
19
1+
#340000
0%
0"
0!
0H
0<
0I
0/
0J
0L
1C
0:
16
0*
1,
0K
09
0+
#360000
0&
1(
0$
1%
1"
1!
0;
1@
0=
1H
1<
1I
1/
1L
1:
1*
#380000
1&
0(
1;
0@
0/
1J
0C
0E
06
07
0,
0.
1K
19
1+
#400000
1'
1$
0"
0!
1F
1=
0<
0I
1/
0J
1G
1E
1C
0K
18
17
16
09
1-
1.
1,
0+
0L
1K
0:
19
0*
1+
#420000
1#
0'
1!
1?
0F
1I
0/
1L
0K
1:
09
1*
0+
#440000
0%
0#
0H
0?
1/
0L
1K
0G
0:
19
08
0*
1+
0-
#460000
0&
1(
1"
1'
0!
1#
0;
1@
1<
1F
0I
1?
0/
1A
1B
0E
0K
1J
07
09
0.
0+
1G
0C
18
06
1-
0,
1K
19
1+
#480000
1&
0(
0"
0'
1;
0@
0<
0F
1/
0A
1E
0G
0B
17
08
1.
0-
1G
0J
18
1-
1C
16
1,
0K
09
0+
#500000
1%
1!
1(
1"
1'
1H
1I
1@
1<
1F
0/
1A
1J
1B
1L
0E
0C
0G
1:
07
06
08
1*
0.
0,
0-
1G
1K
1C
18
19
16
1-
1+
1,
#520000
0$
0#
0!
0(
0=
0?
0I
0@
1/
0A
0G
0K
0B
08
09
0-
0+
1G
18
1-
0C
06
0,
#540000
0&
0%
0"
0'
1#
1(
0;
0H
0<
0F
1?
1@
0/
0J
0L
1K
1E
0:
19
17
0*
1+
1.
0K
09
0+
#560000
1!
1&
1'
0#
0(
1I
1;
1F
0?
0@
1/
1K
1C
0E
19
16
07
1+
1,
0.
#580000
1"
0!
1<
0I
0/
1J
0C
0K
06
09
0,
0+
1K
19
1+
#600000
1%
0&
1(
1!
1H
0;
1@
1I
1/
0J
1L
1C
1E
1:
16
17
1*
1,
1.
0K
09
0+
#620000
1&
0(
0!
1;
0@
0I
0/
1J
0C
0E
0L
1K
06
07
0:
19
0,
0.
0*
1+
1L
0K
1:
09
1*
0+
#640000
0"
0&
1!
0<
0;
1I
1/
0J
1K
19
1+
0K
09
0+
#660000
0'
0%
1(
0!
0F
0H
1@
0I
0/
0G
0L
1E
08
0:
17
0-
0*
1.
#680000
1$
1&
1'
1%
1!
1=
1;
1F
1H
1I
1/
1A
0E
1C
1G
1L
1B
07
16
18
1:
0.
1,
1-
1*
0G
1J
08
0-
0C
06
0,
1K
19
1+
#700000
1#
1"
0$
0&
0'
1?
1<
0=
0;
0F
0/
0A
1E
0B
17
1.
1G
0J
18
1-
1C
16
1,
0K
09
0+
#720000
0(
0%
0!
0"
1$
0@
0H
0I
0<
1=
1/
0L
0C
0:
06
0*
0,
#740000
1&
1'
1(
1%
1"
0$
1;
1F
1@
1H
1<
0=
0/
1J
1B
0G
1K
08
19
0-
1+
1L
0K
1C
1:
09
16
1*
0+
1,
#760000
1!
0'
0%
0"
1I
0F
0H
0<
1/
0B
1G
0C
0J
18
06
1-
0,
1C
16
1,
0L
1K
0:
19
0*
1+
#780000
0&
0!
0;
0I
0/
0C
0K
06
09
0,
0+
#800000
0#
0(
1$
1'
1%
0?
0@
1=
1F
1H
1/
1K
19
1+
#820000
1"
1&
0$
1<
1;
0=
0/
1J
0E
07
0.
1L
0K
1:
09
1*
0+
#840000
1#
1(
0'
0%
0&
1?
1@
0F
0H
0;
1/
0J
1E
0L
1K
1C
17
0:
19
16
1.
0*
1+
1,
0K
09
0+
#860000
1!
1$
0(
1&
1I
1=
0@
1;
0/
1J
1K
0C
19
06
1+
0,
1L
0K
1:
09
1*
0+
#880000
0#
1'
0$
1(
0?
1F
0=
1@
1/
#900000
0"
1%
1$
0<
1H
1=
0/
0J
1A
1C
1K
0E
1B
16
19
07
1,
1+
0.
0K
0G
1J
09
08
0+
0-
0C
06
0,
1K
19
1+
#920000
1#
0'
0(
0%
1?
0F
0@
0H
1/
0A
1E
0K
0B
17
09
1.
0+
1G
0J
18
1-
1C
16
1,
0L
1K
0:
19
0*
1+
#940000
0!
0&
1"
0I
0;
1<
0/
0K
09
0+
#960000
0$
0#
1!
0"
0=
0?
1I
0<
1/
0E
0G
1K
0C
07
08
19
06
0.
0-
1+
0,
#980000
1'
1&
1$
1#
1"
1F
1;
1=
1?
1<
0/
1B
1J
1E
17
1.
1C
1L
0K
16
1:
09
1,
1*
0+
